{
	"name": "Level 2",
	"background": {
		"textures": [
			"textures/test_bg1.png",
			"textures/test_bg2.png",
			"textures/test_bg3.png",
			"textures/test_bg1.png"
		],
		"loop": [
			5,
			5,
			5,
			1
		]
	},
	"waves": [
		{
			"_comment": "Wave 1",
			"delay": 20,
			"threats": [
				{
					"type": "mutated human",
					"location": [ 560, -130 ]
				},
				{
					"type": "mutated human",
					"location": [ 560, -200 ]
				},
				{
					"type": "mutated human",
					"location": [ 910, -130 ]
				},
				{
					"type": "mutated human",
					"location": [ 910, -200 ]
				},
				{
					"type": "mutated human",
					"location": [ 1380, -130 ]
				},
				{
					"type": "mutated human",
					"location": [ 1380, -200 ]
				}
			]
		}
	]
}