{
	"name": "Level 1",
	"background": {
		"textures": [
			"textures/test_bg1.png",
			"textures/test_bg2.png",
			"textures/test_bg3.png",
			"textures/test_bg1.png"
		],
		"loop": [
			5,
			5,
			5,
			1
		]
	},
	"waves": [
		{
			"_comment": "Wave 1",
			"delay": 10,
			"threats": [
        {
          "type": "mutated riot police",
          "location": [ 900, 30 ]
        },
        {
          "type": "mutated riot police",
          "location": [ 1100, 30 ]
        }
			]
		},
		{
			"_comment": "Wave 2",
			"delay": 5,
			"threats": [

			]
		},
		{
			"_comment": "Wave 3",
			"delay": 20,
			"threats": [
				{
					"type": "mutated human",
					"location": [ 560, 30 ]
				},
				{
					"type": "mutated human",
					"location": [ 970, 100 ]
				},
				{
					"type": "mutated human",
					"location": [ 1380, 30 ]
				},
				{
					"type": "mutated crow",
					"location": [ 970, -70 ]
				},
				{
					"type": "tsunami",
					"location": [ 0, -11512 ]
				}
			]
		},
		{
			"_comment": "Wave 4",
			"delay": 5,
			"threats": [
				{
					"type": "mutated riot police",
					"location": [ 970, 30 ]
				}
			]
		},
		{
			"_comment": "Wave 5",
			"delay": 15,
			"threats": [
				{
					"type": "mutated riot police",
					"location": [ 520, -50 ]
				},
				{
					"type": "mutated crow",
					"location": [ 970, -150 ]
				},
				{
					"type": "mutated human",
					"location": [ 1420, -20 ]
				}
			]
		},
		{
			"_comment": "Wave 6",
			"delay": 15,
			"threats": [
				{
					"type": "mutated human",
					"location": [ 520, -50 ]
				},
				{
					"type": "mutated human",
					"location": [ 520, -250 ]
				},
				{
					"type": "mutated human",
					"location": [ 1420, -20 ]
				},
				{
					"type": "mutated human",
					"location": [ 1420, -250 ]
				},
				{
					"type": "mutated crow",
					"location": [ 970, -150 ]
				},
				{
					"type": "hurricane",
					"location": [ 970, 200 ]
				}
			]
		}
	]
}